<?xml version="1.0" standalone="no"?>
<!DOCTYPE svg PUBLIC "-//W3C//DTD SVG 1.1//EN" "http://www.w3.org/Graphics/SVG/1.1/DTD/svg11.dtd" >
<svg xmlns="http://www.w3.org/2000/svg">
<metadata>Generated by IcoMoon</metadata>
<defs>
<font id="icomoon" horiz-adv-x="1024">
<font-face units-per-em="1024" ascent="960" descent="-64" />
<missing-glyph horiz-adv-x="1024" />
<glyph unicode="&#x20;" horiz-adv-x="512" d="" />
<glyph unicode="&#xe900;" glyph-name="envelope-o" d="M950.857 91.428v438.857c-12-13.714-25.143-26.286-39.429-37.714-81.714-62.857-164-126.857-243.429-193.143-42.857-36-96-80-155.429-80h-1.143c-59.429 0-112.571 44-155.429 80-79.429 66.286-161.714 130.286-243.429 193.143-14.286 11.429-27.429 24-39.429 37.714v-438.857c0-9.714 8.571-18.286 18.286-18.286h841.143c9.714 0 18.286 8.571 18.286 18.286zM950.857 692c0 14.286 3.429 39.429-18.286 39.429h-841.143c-9.714 0-18.286-8.571-18.286-18.286 0-65.143 32.571-121.714 84-162.286 76.571-60 153.143-120.571 229.143-181.143 30.286-24.571 85.143-77.143 125.143-77.143h1.143c40 0 94.857 52.571 125.143 77.143 76 60.571 152.571 121.143 229.143 181.143 37.143 29.143 84 92.571 84 141.143zM1024 713.143v-621.714c0-50.286-41.143-91.429-91.429-91.429h-841.143c-50.286 0-91.429 41.143-91.429 91.429v621.714c0 50.286 41.143 91.429 91.429 91.429h841.143c50.286 0 91.429-41.143 91.429-91.429z" />
<glyph unicode="&#xe903;" glyph-name="switch1" d="M640 813.412v-135.958c36.206-15.804 69.5-38.408 98.274-67.18 60.442-60.44 93.726-140.8 93.726-226.274s-33.286-165.834-93.726-226.274c-60.44-60.44-140.798-93.726-226.274-93.726s-165.834 33.286-226.274 93.726c-60.44 60.44-93.726 140.8-93.726 226.274s33.286 165.834 93.726 226.274c28.774 28.774 62.068 51.378 98.274 67.182v135.956c-185.048-55.080-320-226.472-320-429.412 0-247.424 200.578-448 448-448 247.424 0 448 200.576 448 448 0 202.94-134.95 374.332-320 429.412zM448 960h128v-512h-128z" />
<glyph unicode="&#xe905;" glyph-name="power1" d="M753.195 625.195c66.645-66.688 99.968-153.941 99.925-241.365s-33.365-174.677-100.011-241.323c-66.645-66.603-153.856-99.925-241.237-99.925-87.552 0-174.848 33.365-241.451 100.011-66.645 66.645-99.925 153.941-99.925 241.323s33.323 174.677 99.925 241.323c16.64 16.683 16.64 43.691 0 60.331s-43.691 16.64-60.331 0c-83.285-83.285-124.928-192.555-124.928-301.653s41.643-218.368 124.928-301.653c83.285-83.328 192.555-125.013 301.696-125.013s218.411 41.643 301.739 124.928c83.328 83.285 125.013 192.555 125.013 301.653-0.043 109.269-41.685 218.453-124.928 301.739-16.64 16.683-43.691 16.683-60.331 0s-16.683-43.691 0-60.331zM469.333 853.334v-426.667c0-23.552 19.115-42.667 42.667-42.667s42.667 19.115 42.667 42.667v426.667c0 23.552-19.115 42.667-42.667 42.667s-42.667-19.115-42.667-42.667z" />
<glyph unicode="&#xe906;" glyph-name="bell" d="M725.333 597.334c0-171.136 40.405-278.187 78.976-341.333h-584.619c38.571 63.147 78.976 170.197 78.976 341.333 0 58.923 23.851 112.213 62.464 150.869s91.947 62.464 150.869 62.464 112.213-23.851 150.869-62.464 62.464-91.947 62.464-150.869zM810.667 597.334c0 82.475-33.493 157.184-87.467 211.2s-128.725 87.467-211.2 87.467-157.184-33.493-211.2-87.467-87.467-128.725-87.467-211.2c0-261.419-102.101-343.339-109.355-348.757-19.328-13.141-24.448-39.424-11.477-58.923 8.192-12.245 21.589-18.901 35.499-18.987h768c23.552 0 42.667 19.115 42.667 42.667 0 14.464-7.168 27.221-18.304 35.029-7.509 5.547-109.696 87.467-109.696 348.971zM548.907 64.086c-5.931-10.197-15.317-17.024-25.941-19.84s-22.187-1.579-32.384 4.309c-6.912 4.011-12.075 9.472-15.317 15.232-11.691 20.48-37.717 27.605-58.197 15.915s-27.605-37.717-15.915-58.197c10.667-18.731 26.581-35.115 46.635-46.763 30.549-17.749 65.493-21.376 97.109-12.971s60.117 28.928 77.824 59.477c11.819 20.395 4.864 46.507-15.488 58.325s-46.507 4.864-58.325-15.488z" />
<glyph unicode="&#xe907;" glyph-name="filter_list" d="M256 384.667v84h512v-84h-512zM128 682.667h768v-86h-768v86zM426 170.667v86h172v-86h-172z" />
<glyph unicode="&#xe908;" glyph-name="list-nested" horiz-adv-x="1170" d="M0 886.858c0 40.396 32.747 73.143 73.143 73.143s73.143-32.747 73.143-73.143c0-40.396-32.747-73.143-73.143-73.143s-73.143 32.747-73.143 73.143zM292.572 960h877.714v-146.286h-877.714zM292.572 594.286c0 40.396 32.747 73.143 73.143 73.143s73.143-32.747 73.143-73.143c0-40.396-32.747-73.143-73.143-73.143s-73.143 32.747-73.143 73.143zM585.142 667.428h585.144v-146.286h-585.144zM292.572 9.142c0 40.396 32.747 73.143 73.143 73.143s73.143-32.747 73.143-73.143c0-40.396-32.747-73.143-73.143-73.143s-73.143 32.747-73.143 73.143zM585.142 82.286h585.144v-146.286h-585.144zM585.142 301.714c0 40.396 32.747 73.143 73.143 73.143s73.143-32.747 73.143-73.143c0-40.396-32.747-73.143-73.143-73.143s-73.143 32.747-73.143 73.143zM877.714 374.858h292.572v-146.286h-292.572z" />
<glyph unicode="&#xe909;" glyph-name="search" d="M621.668 306.332c-44.476-31.692-98.895-50.332-157.668-50.332-150.221 0-272 121.779-272 272s121.779 272 272 272c150.221 0 272-121.779 272-272 0-58.773-18.641-113.192-50.332-157.668l178.714-178.714c17.606-17.606 17.46-45.778-0.006-63.244l-0.75-0.75c-17.421-17.421-45.781-17.469-63.244-0.006l-178.714 178.714zM464 320c114.875 0 208 93.125 208 208s-93.125 208-208 208c-114.875 0-208-93.125-208-208s93.125-208 208-208v0z" />
<glyph unicode="&#xe90a;" glyph-name="arrow_drop_up" d="M298 340.667l214 214 214-214h-428z" />
<glyph unicode="&#xe90b;" glyph-name="arrow_drop_down" d="M298 512.667h428l-214-214z" />
</font></defs></svg>